<?xml version="1.0" encoding="utf-8"?>
<!-- Generator: Adobe Illustrator 24.0.1, SVG Export Plug-In . SVG Version: 6.00 Build 0)  -->
<svg version="1.1" id="圖層_1" xmlns="http://www.w3.org/2000/svg" xmlns:xlink="http://www.w3.org/1999/xlink" x="0px" y="0px"
	 viewBox="0 0 16 10" style="enable-background:new 0 0 16 10;" xml:space="preserve">
<style type="text/css">
	.st0{fill-rule:evenodd;clip-rule:evenodd;fill:#F1AC33;}
</style>
<path class="st0" d="M15.3,1.1c0.3,0.3,0.3,0.8,0.1,1.1l-0.1,0.1L8.6,8.9C8.3,9.2,7.8,9.2,7.5,9L7.4,8.9L0.7,2.3
	c-0.3-0.3-0.3-0.9,0-1.2C1,0.8,1.5,0.8,1.8,1l0.1,0.1L8,7.2l6.1-6.1C14.4,0.8,14.8,0.8,15.3,1.1L15.3,1.1z"/>
</svg>
