<?xml version="1.0" encoding="utf-8"?>
<!-- Generator: Adobe Illustrator 24.0.1, SVG Export Plug-In . SVG Version: 6.00 Build 0)  -->
<svg version="1.1" id="圖層_1" xmlns="http://www.w3.org/2000/svg" xmlns:xlink="http://www.w3.org/1999/xlink" x="0px" y="0px"
	 viewBox="0 0 10 16" style="enable-background:new 0 0 10 16;" xml:space="preserve">
<style type="text/css">
	.st0{fill-rule:evenodd;clip-rule:evenodd;fill:#FFFFFF;}
</style>
<path class="st0" d="M8.9,15.3c-0.3,0.3-0.8,0.3-1.1,0.1l-0.1-0.1L1.1,8.6C0.8,8.3,0.8,7.8,1,7.5l0.1-0.1l6.7-6.7
	c0.3-0.3,0.9-0.3,1.2,0C9.2,1,9.2,1.5,9,1.8L8.9,1.9L2.8,8l6.1,6.1C9.2,14.4,9.2,14.8,8.9,15.3L8.9,15.3z"/>
</svg>
