<svg width="20" height="20" viewBox="0 0 20 20" fill="none" xmlns="http://www.w3.org/2000/svg">
<path d="M12.48 19.8C12.368 19.8 12.254 19.774 12.152 19.72L7.19201 17.168C6.95201 17.044 6.80201 16.798 6.80201 16.528V9.88595L1.42801 3.56395C1.31801 3.43395 1.25601 3.26795 1.25601 3.09795C1.25801 1.49995 2.55601 0.199951 4.15401 0.199951H15.846C17.442 0.199951 18.742 1.49995 18.742 3.09795C18.742 3.26795 18.682 3.43395 18.57 3.56395L13.198 9.88795V19.082C13.198 19.332 13.068 19.566 12.854 19.6959C12.74 19.766 12.61 19.8 12.48 19.8ZM8.23801 16.09L11.76 17.902V9.62195C11.76 9.45195 11.82 9.28595 11.932 9.15595L17.286 2.85595C17.17 2.16395 16.57 1.63595 15.846 1.63595H4.15401C3.43201 1.63595 2.83001 2.16395 2.71401 2.85595L8.06801 9.15595C8.17801 9.28595 8.23801 9.45195 8.23801 9.62195V16.09Z" fill="#26A699"/>
</svg>
