<svg width="24" height="18" viewBox="0 0 24 18" fill="none" xmlns="http://www.w3.org/2000/svg">
<path d="M23.2669 12.5028L14.0328 18V4.57442L23.2941 0L23.2669 12.5028Z" fill="url(#paint0_linear)"/>
<path d="M23.2941 12.5127L0 17.6428V5.1301L23.2941 0V12.5127Z" fill="url(#paint1_linear)"/>
<path d="M6.69524 7.458L7.87957 12.9313L6.36268 13.2596L3.74478 11.2232L4.28281 13.7096L2.48443 14.0987L1.3001 8.62542L2.81699 8.29719L5.43488 10.3336L4.89686 7.84714L6.69524 7.458ZM13.0182 10.3625L13.3194 11.7543L8.76868 12.7389L7.58435 7.26562L12.0334 6.30292L12.3345 7.69471L9.69953 8.26489L9.83826 8.90605L12.1527 8.40524L12.4403 9.73448L10.1259 10.2353L10.2815 10.9546L13.0182 10.3625ZM21.6749 4.21666L21.1078 10.069L19.1296 10.497L17.6133 7.76389L17.3156 10.8896L15.3374 11.3176L12.4016 6.22326L14.3016 5.81213L15.9289 8.71769L16.2642 5.38746L17.9609 5.02032L19.5967 7.96498L19.9235 4.59565L21.6749 4.21666Z" fill="#FEFFFF"/>
<defs>
<linearGradient id="paint0_linear" x1="14.0337" y1="9.0005" x2="23.295" y2="9.0005" gradientUnits="userSpaceOnUse">
<stop stop-color="#00EDFF"/>
<stop offset="1" stop-color="#00656A"/>
</linearGradient>
<linearGradient id="paint1_linear" x1="0" y1="8.82039" x2="23.295" y2="8.82039" gradientUnits="userSpaceOnUse">
<stop stop-color="#008A94"/>
<stop offset="1" stop-color="#00CBD4"/>
</linearGradient>
</defs>
</svg>
