<svg width="20" height="21" viewBox="0 0 20 21" fill="none" xmlns="http://www.w3.org/2000/svg">
<g clip-path="url(#clip0_1214_24691)">
<path d="M19.5 10.5C19.5 15.7467 15.2467 20 10 20C4.75329 20 0.5 15.7467 0.5 10.5C0.5 5.25329 4.75329 1 10 1C15.2467 1 19.5 5.25329 19.5 10.5Z" stroke="black"/>
<path d="M8.62903 10.0162H5.48387C5 10.0162 4.59677 9.61297 4.59677 9.1291V6.06459C4.59677 5.58072 5 5.17749 5.48387 5.17749H8.62903C9.1129 5.17749 9.51613 5.58072 9.51613 6.06459V9.20975C9.43548 9.69362 9.1129 10.0162 8.62903 10.0162Z" fill="black"/>
<path d="M12.9839 10.0162C11.6129 10.0162 10.5645 8.96781 10.5645 7.59685C10.5645 6.22588 11.6129 5.17749 12.9839 5.17749C14.3548 5.17749 15.4032 6.22588 15.4032 7.59685C15.4032 8.96781 14.2742 10.0162 12.9839 10.0162Z" fill="black"/>
<path d="M8.62903 15.742H5.48387C5 15.742 4.59677 15.3388 4.59677 14.8549V11.7904C4.59677 11.3065 5 10.9033 5.48387 10.9033H8.62903C9.1129 10.9033 9.51613 11.3065 9.51613 11.7904V14.9356C9.43548 15.4194 9.1129 15.742 8.62903 15.742Z" fill="black"/>
<path d="M14.3548 15.742H11.2097C10.7258 15.742 10.3226 15.3388 10.3226 14.8549V11.7904C10.3226 11.3065 10.7258 10.9033 11.2097 10.9033H14.3548C14.8387 10.9033 15.2419 11.3065 15.2419 11.7904V14.9356C15.2419 15.4194 14.8387 15.742 14.3548 15.742Z" fill="black"/>
</g>
<defs>
<clipPath id="clip0_1214_24691">
<rect width="20" height="20" fill="white" transform="translate(0 0.5)"/>
</clipPath>
</defs>
</svg>
