<?xml version="1.0" encoding="utf-8"?>
<!-- Generator: Adobe Illustrator 25.2.3, SVG Export Plug-In . SVG Version: 6.00 Build 0)  -->
<svg version="1.1" id="圖層_1" xmlns="http://www.w3.org/2000/svg" xmlns:xlink="http://www.w3.org/1999/xlink" x="0px" y="0px"
	 viewBox="0 0 21 21" style="enable-background:new 0 0 21 21;" xml:space="preserve">
<style type="text/css">
	.st0{fill-rule:evenodd;clip-rule:evenodd;fill:#53AE94;}
	.st1{fill-rule:evenodd;clip-rule:evenodd;fill:#FFFFFF;}
</style>
<g>
	<g>
		<g>
			<path class="st0" d="M10.5,0.4c5.6,0,10.1,4.5,10.1,10.1c0,5.6-4.5,10.1-10.1,10.1c-5.6,0-10.1-4.5-10.1-10.1
				C0.4,4.9,4.9,0.4,10.5,0.4z"/>
			<path class="st1" d="M11.8,11.4L11.8,11.4c-0.1,0-0.4,0-1.2,0c-0.6,0-1.1,0-1.3,0v0c-2.5-0.1-4.3-0.5-4.3-1.1
				c0-0.5,1.8-0.9,4.3-1.1V11c0.2,0,0.6,0,1.3,0c0.8,0,1.2,0,1.2,0V9.3c2.5,0.1,4.3,0.5,4.3,1.1C16.1,10.9,14.2,11.3,11.8,11.4
				 M11.8,9.1V7.6h3.4V5.3H5.8v2.3h3.4v1.5c-2.8,0.1-4.9,0.7-4.9,1.3c0,0.7,2.1,1.2,4.9,1.3v4.8h2.5v-4.8c2.8-0.1,4.9-0.7,4.9-1.3
				C16.7,9.8,14.5,9.3,11.8,9.1"/>
		</g>
	</g>
</g>
</svg>
