<svg width="15" height="15" viewBox="0 0 15 15" fill="none" xmlns="http://www.w3.org/2000/svg">
<path d="M10.7 14.2C9.7 14.8 8.6 15 7.5 15C6.4 15 5.3 14.7 4.3 14.2L3.5 13.7C2.5 12.9 1.7 11.8 1.3 10.6C0.9 9.3 0.8 8 1.2 6.8C1.5 5.6 2.2 4.4 3.2 3.6C4.2 2.8 5.4 2.2 6.6 2V1H6.1C6 1 5.9 1 5.8 0.9C5.7 0.7 5.6 0.6 5.6 0.5C5.6 0.4 5.6 0.3 5.7 0.2C5.8 0 6 0 6.1 0H8.9C9 0 9.1 0 9.2 0.1C9.3 0.2 9.3 0.3 9.3 0.4C9.3 0.5 9.3 0.6 9.2 0.7C9.1 0.9 9 0.9 8.9 0.9H8.4V1.9C9.7 2.1 10.9 2.6 11.8 3.5C12.7 4.4 13.5 5.5 13.8 6.7C14.1 7.9 14.1 9.3 13.7 10.5C13.3 11.7 12.5 12.8 11.5 13.6L10.7 14.2ZM8 5.2C8 5.1 8 5 7.9 4.9C7.7 4.7 7.6 4.7 7.5 4.7C7.4 4.7 7.3 4.7 7.2 4.8C7.1 4.9 7 5 7 5.2V8.4L5.7 10.6C5.6 10.7 5.6 10.8 5.6 11C5.6 11.2 5.7 11.2 5.8 11.3C5.9 11.4 6 11.4 6.2 11.4C6.3 11.4 6.4 11.3 6.5 11.2L7.9 8.9C7.9 8.6 8 8.5 8 8.4V5.2ZM0.8 5.1C0.6 4.8 0.4 4.6 0.2 4.3C0.1 4 0 3.7 0 3.4C0 3 0 2.7 0.2 2.4C0.3 2.1 0.5 1.8 0.7 1.6C0.9 1.4 1.2 1.2 1.5 1.1C1.8 1 2.1 0.9 2.4 0.9C2.7 1 3.1 1 3.4 1.2C3.7 1.3 3.9 1.5 4.2 1.8C2.7 2.5 1.5 3.6 0.8 5.1ZM10.9 1.7C11.1 1.5 11.4 1.3 11.7 1.1C11.9 1 12.3 1 12.6 0.9C12.9 0.9 13.2 0.9 13.5 1.1C13.8 1.2 14.1 1.4 14.3 1.6C14.5 1.8 14.7 2.1 14.8 2.4C15 2.7 15 3 15 3.4C15 3.7 14.9 4 14.8 4.3C14.7 4.6 14.5 4.8 14.2 5.1C13.5 3.6 12.3 2.5 10.9 1.7Z" fill="#2FA55D"/>
</svg>
