<svg width="15" height="15" viewBox="0 0 15 15" fill="none" xmlns="http://www.w3.org/2000/svg">
<path d="M13.4811 0H4.30073C3.46528 0 2.78174 0.683544 2.78174 1.51899V10.6994C2.78174 11.5348 3.46528 12.2184 4.30073 12.2184H13.4811C14.3165 12.2184 15.0001 11.5348 15.0001 10.6994V1.51899C15.0001 0.683544 14.3165 0 13.4811 0ZM4.30073 11.269C3.98743 11.269 3.73111 11.0032 3.73111 10.6994V1.51899C3.73111 1.2057 3.99693 0.949367 4.30073 0.949367H13.4811C13.7944 0.949367 14.0507 1.21519 14.0507 1.51899V10.6994C14.0507 11.0127 13.7849 11.269 13.4811 11.269H4.30073Z" fill="#009688"/>
<path d="M1.40506 1.94629C1.33861 1.94629 1.28165 1.95578 1.21519 1.98426C0.474684 2.29755 0 3.02857 0 3.82604V13.0064C0 14.1077 0.892405 15.0001 1.99367 15.0001H11.1741C12.0285 15.0001 12.7975 14.4495 13.0728 13.633C13.1392 13.4336 13.1772 13.2153 13.1772 12.9969C13.1772 12.7311 12.9684 12.5222 12.7025 12.5222C12.4367 12.5222 12.2278 12.7311 12.2278 12.9969C12.2278 13.1108 12.2089 13.2248 12.1709 13.3292C12.0285 13.7564 11.6297 14.0507 11.1741 14.0507H1.99367C1.41456 14.0507 0.949367 13.576 0.949367 13.0064V3.82604C0.949367 3.40831 1.2057 3.02857 1.59494 2.85768C1.83228 2.75325 1.9462 2.47793 1.84177 2.2311C1.76582 2.06021 1.59494 1.94629 1.40506 1.94629Z" fill="#009688"/>
</svg>
