<svg width="390" height="224" viewBox="0 0 390 224" fill="none" xmlns="http://www.w3.org/2000/svg">
<path d="M374.037 125.494C368.489 129.542 363.002 133.614 357.299 137.525C338.452 150.511 318.921 162.426 297.795 171.394C281.265 178.398 264.347 183.462 246.158 183.3C245.016 183.314 243.637 184.223 242.782 185.069C236.901 191.249 230.415 196.675 223.194 201.152C205.257 212.32 185.626 219.434 165.325 224.772C164.458 224.974 163.626 225.261 162.537 225.653C163.005 226.561 163.248 227.162 163.603 227.667C165.87 231.041 168.026 234.51 170.576 237.72C181.077 250.685 191.714 263.495 202.351 276.305C202.922 276.972 204.359 277.438 205.2 277.297C213.207 275.497 221.258 273.929 229.142 271.58C285.686 254.788 327.011 219.056 356.529 168.741C358.728 165.053 361.108 161.442 363.427 157.805C367.989 147.019 372.525 136.292 377.087 125.505C376.067 124.222 375.158 124.69 374.037 125.494Z" fill="white" fill-opacity="0.3"/>
<path d="M198.827 204.344C214.936 197.162 229.686 187.984 240.968 174.072C246.759 166.931 251.696 159.287 254.291 150.296C259.023 133.899 258.566 117.509 254.647 101.075C250 81.4924 241.357 63.6297 231.428 46.2886C230.501 44.6177 229.317 44.8984 227.996 45.3343C219.537 47.8663 211.059 50.1064 202.714 53.0417C186.195 58.8428 170.673 66.4863 157.335 78.0368C142.944 90.5633 132.844 105.543 130.652 125.005C130.546 126.096 130.778 127.899 131.51 128.351C135.708 131.192 139.736 134.6 144.469 136.176C156.577 140.301 168.865 138.962 181.057 135.665C185.956 134.327 185.896 134.301 185.091 129.486C183.013 117.098 186.033 105.589 191.281 94.5237C198.579 79.2821 209.015 66.3623 220.831 54.3809C223.584 51.5669 226.552 48.9152 229.956 45.7372C230.112 47.7211 230.367 48.9656 230.27 50.2032C229.9 59.1399 229.651 68.1275 229.076 77.0481C228.195 90.3859 224.871 103.117 219.13 115.181C215.14 123.439 209.736 130.673 202.133 136.053C196.44 140.11 189.791 142.058 183.227 143.971C156.092 152.031 133.08 145.638 114.684 123.793C103.676 110.684 96.5492 95.4511 90.7852 79.5162C81.3719 53.2291 76.232 25.9078 72.4571 -1.61772C72.3411 -2.51925 71.9933 -3.3767 71.5481 -4.84367C70.8831 -3.77516 70.524 -3.42979 70.3456 -3.00797C59.3081 20.7398 50.6625 45.2148 46.9305 71.3416C42.7586 100.692 43.6715 129.778 51.1037 158.566C57.1979 182.455 67.7671 204.329 81.3281 224.84C81.8126 225.542 83.2055 225.776 84.1858 225.977C84.9854 226.103 85.8777 225.841 86.6934 225.759C101.456 224.614 116.282 223.993 130.973 222.179C154.371 219.429 177.215 213.958 198.827 204.344Z" fill="white" fill-opacity="0.3"/>
<path d="M293.963 38.849C293.893 38.6775 293.763 38.4806 293.694 38.3091C292.948 38.5618 292.227 38.7543 291.481 39.007C287.107 40.7806 282.709 42.6145 278.336 44.3881C275.395 45.6308 274.663 45.1789 274.811 41.9737C275.016 34.6014 275.281 27.2546 275.547 19.9078C275.673 15.9122 275.087 15.4511 271.409 17.0925C263.822 20.4194 256.244 23.8923 248.717 27.2447C246.008 28.4433 245.456 28.0679 245.27 25.1478C245.101 22.0214 244.991 18.9204 244.761 15.7685C244.715 15.0385 244.374 13.8288 243.866 13.6851C243.324 13.4558 242.244 13.9936 241.688 14.4688C239.514 16.2491 237.436 18.1405 235.443 19.9972C232.312 22.8646 231.608 22.8508 230.084 18.7257C227.291 11.2217 224.633 3.56247 221.925 -3.97626C220.81 -7.2184 220.122 -7.43847 217.668 -4.99536C212.153 0.486575 206.733 6.07974 201.278 11.5872C199.38 13.5551 198.571 13.284 197.588 10.7372C195.752 5.84036 193.77 0.952853 191.848 -3.90917C191.639 -4.42364 191.319 -4.84308 190.999 -5.26252C190.828 -5.19296 190.682 -5.18367 190.571 -5.08863C191.077 1.94519 191.583 8.97901 192.087 15.5145C197.649 16.304 202.711 16.5976 207.622 17.751C223.517 21.4892 238.496 27.8951 252.982 35.3C261.922 39.862 270.947 44.3892 277.962 52.3282C283.301 47.7664 288.589 43.3251 293.963 38.849Z" fill="white" fill-opacity="0.3"/>
<path d="M203.764 -9.24135C207.36 -13.5457 210.871 -17.8152 214.467 -22.1195C217.03 -25.1559 217.648 -25.1074 218.998 -21.411C223.211 -10.0392 227.363 1.30712 231.662 12.6441C232.654 15.337 233.247 15.4459 235.395 13.7259C238.605 11.1761 241.694 8.57526 244.938 6.11117C246.838 4.64153 247.803 5.04928 247.986 7.47114C248.262 11.3531 248.539 15.235 248.815 19.1169C249.064 22.5608 249.52 22.825 252.658 21.4525C263.828 16.373 275.058 11.3189 286.203 6.29966C287.232 5.88234 288.33 5.63651 289.909 5.09627C289.18 12.5312 288.414 19.3821 287.726 26.5506C292.721 25.3238 292.66 25.2983 293.232 20.9226C293.406 19.5042 293.665 18.0511 293.839 16.6327C294.552 11.2511 295.265 5.86954 295.892 0.522758C296.197 -2.0475 295.215 -2.74726 292.805 -1.91952C292.316 -1.77112 291.861 -1.53698 291.407 -1.30283C279.91 3.70953 268.474 8.74738 256.977 13.7597C254.096 15.0279 253.605 14.678 253.35 11.5864C253.027 6.97442 252.729 2.30219 252.346 -2.33526C252.154 -4.90312 251.189 -5.31087 249.152 -3.68593C245.66 -0.971505 242.289 1.79389 238.857 4.5338C235.87 6.89356 235.181 6.67349 233.936 3.23437C229.765 -8.40396 225.508 -20.0075 221.251 -31.6111C220.79 -32.8718 219.814 -33.9238 219.035 -35.1057C217.948 -34.2155 216.706 -33.4621 215.895 -32.3843C211.574 -27.037 207.433 -21.6132 203.172 -16.2404C201.105 -13.7046 201.182 -12.0383 203.764 -9.24135Z" fill="white" fill-opacity="0.3"/>
<path d="M237.458 -0.390903C243.117 -4.53329 248.776 -8.67568 255.052 -13.2678C255.913 -5.72877 256.623 0.822958 257.377 7.60644C262.174 6.5095 262.174 6.5095 261.794 2.37034C261.097 -4.88594 260.461 -12.1167 259.765 -19.373C259.649 -20.2745 259.034 -21.1737 258.687 -22.0311C257.89 -21.6579 256.937 -21.4213 256.235 -20.9369C250.252 -16.3634 244.328 -11.7644 238.32 -7.13059C235.136 -4.64102 235.068 -4.31423 237.458 -0.390903Z" fill="white" fill-opacity="0.3"/>
<path d="M200.653 3.15362C201.564 5.03074 202.494 5.35274 204.032 3.7302C208.734 -1.17222 213.471 -5.98889 218.112 -10.9168C218.582 -11.3572 218.749 -12.4233 218.617 -13.1186C218.422 -14.3376 217.849 -15.5033 217.214 -17.1927C216.248 -16.2516 215.752 -15.7509 215.231 -15.19C211.803 -11.4535 208.376 -7.71705 204.889 -4.00606C202.965 -1.97788 202.286 -2.05194 201.097 -4.61502C197.564 -12.2185 194.031 -19.822 190.498 -27.4255C190.124 -28.2227 189.726 -28.9596 189.327 -29.6966C189.07 -29.5922 188.838 -29.5482 188.52 -29.4693C188.975 -26.0092 188.804 -22.2454 190.116 -19.1331C193.272 -11.4762 197.104 -4.24361 200.653 3.15362Z" fill="white" fill-opacity="0.3"/>
<path d="M274.777 52.9706C273.672 51.7216 272.446 50.4216 271.016 49.6037C263.038 44.9512 255.247 40.0228 246.955 35.9474C233.848 29.481 220.307 24.039 206.132 20.6018C201.815 19.5572 197.311 19.2867 192.85 18.7497C191.638 18.5923 190.092 18.72 190.136 20.7989C206.014 21.0491 220.271 27.1492 234.483 33.0175C248.791 38.9971 263.021 45.1575 274.773 55.6683C275.005 55.6242 275.262 55.5199 275.494 55.4758C275.206 54.6438 275.287 53.6125 274.777 52.9706Z" fill="white" fill-opacity="0.3"/>
<path d="M271.65 60.0305C269.992 58.4061 268.214 56.7307 266.258 55.4772C246.195 42.4461 224.364 33.427 201.225 27.3352C197.526 26.3391 193.565 26.298 189.646 25.9904C188.348 25.8677 186.897 26.1067 186.992 28.065C202.921 28.1947 217.178 34.2948 231.365 40.2234C245.637 46.1172 259.903 52.3633 271.629 62.9344C271.886 62.8301 272.118 62.786 272.375 62.6817C272.139 61.7292 272.185 60.6121 271.65 60.0305Z" fill="white" fill-opacity="0.3"/>
<path d="M282.925 28.498C283.105 23.0331 283.285 17.5682 283.465 12.1033C283.249 11.9411 283.068 11.8646 282.853 11.7024C281.492 12.9031 278.567 12.0924 278.487 14.9709C278.356 21.6641 278.456 28.3133 278.471 34.9972C278.474 37.3426 279.241 37.8802 281.505 37.0617C289.447 34.24 297.519 31.6153 305.347 28.3904C308.177 27.2427 310.51 24.7486 313.027 22.8293C312.897 22.6323 312.767 22.4353 312.577 22.2129C311.857 22.4053 311.136 22.5978 310.45 22.876C302.594 25.663 294.712 28.5101 286.795 31.2716C282.988 32.716 282.798 32.4936 282.925 28.498Z" fill="white" fill-opacity="0.3"/>
<path d="M320.105 20.7077C322.033 21.5233 324.571 20.3942 325.291 18.3546C325.986 16.3753 324.936 14.1552 322.982 13.3999C321.088 12.6702 318.662 13.7042 317.932 15.5978C317.203 17.4914 318.237 19.9177 320.105 20.7077Z" fill="white" fill-opacity="0.3"/>
</svg>
