<svg width="20" height="20" viewBox="0 0 20 20" fill="none" xmlns="http://www.w3.org/2000/svg">
<path fill-rule="evenodd" clip-rule="evenodd" d="M14.8567 4.04376C15.1338 3.78874 15.5651 3.8066 15.8201 4.08366C17.1889 5.5707 17.9484 7.49822 17.9484 9.49285C17.9484 13.8737 14.3809 17.4412 9.99999 17.4412C9.45716 17.4412 9.132 16.8377 9.43057 16.3844L11.7683 12.8347C11.9754 12.5202 12.3983 12.4332 12.7128 12.6403C13.0272 12.8474 13.1143 13.2702 12.9072 13.5847L11.3584 15.9364C14.3379 15.3077 16.5847 12.6552 16.5847 9.49285C16.5847 7.84199 15.955 6.24365 14.8168 5.00717C14.5618 4.73011 14.5797 4.29878 14.8567 4.04376ZM9.99267 2.04541C10.5355 2.04541 10.8607 2.64889 10.5621 3.10224L8.22435 6.65193C8.01724 6.96642 7.5944 7.05346 7.27991 6.84635C6.96543 6.63924 6.87839 6.2164 7.0855 5.90192L8.63425 3.55025C5.6548 4.17887 3.40795 6.83146 3.40795 9.99377C3.40795 11.6446 4.03771 13.243 5.17584 14.4795C5.43086 14.7565 5.41299 15.1878 5.13593 15.4429C4.85888 15.6979 4.42754 15.68 4.17252 15.403C2.80377 13.9159 2.04431 11.9884 2.04431 9.99377C2.04431 5.61288 5.61179 2.04541 9.99267 2.04541Z" fill="#222222"/>
</svg>
