<?xml version="1.0" encoding="utf-8"?>
<!-- Generator: Adobe Illustrator 25.0.0, SVG Export Plug-In . SVG Version: 6.00 Build 0)  -->
<svg version="1.1" id="圖層_1" xmlns="http://www.w3.org/2000/svg" xmlns:xlink="http://www.w3.org/1999/xlink" x="0px" y="0px"
	 viewBox="0 0 33 33" style="enable-background:new 0 0 33 33;" xml:space="preserve">
<style type="text/css">
	.st0{fill:#FFFFFF;}
</style>
<path class="st0" d="M24.9,8H12.7c-0.6,0-1.1,0.5-1.1,1.1v0.6c0,0.6,0.5,1.1,1.1,1.1h12.2c0.6,0,1.1-0.5,1.1-1.1V9.1
	C26,8.5,25.5,8,24.9,8z M24.9,15.2H12.7c-0.6,0-1.1,0.5-1.1,1.1v0.6c0,0.6,0.5,1.1,1.1,1.1h12.2c0.6,0,1.1-0.5,1.1-1.1v-0.6
	C26,15.7,25.5,15.2,24.9,15.2z M24.9,22.4H12.7c-0.6,0-1.1,0.5-1.1,1.1v0.6c0,0.6,0.5,1.1,1.1,1.1h12.2c0.6,0,1.1-0.5,1.1-1.1v-0.6
	C26,22.9,25.5,22.4,24.9,22.4z M7.7,8H7.1C6.5,8,6,8.5,6,9.1v0.6c0,0.6,0.5,1.1,1.1,1.1h0.6c0.6,0,1.1-0.5,1.1-1.1V9.1
	C8.8,8.5,8.3,8,7.7,8z M7.7,22.4H7.1c-0.6,0-1.1,0.5-1.1,1.1v0.6c0,0.6,0.5,1.1,1.1,1.1h0.6c0.6,0,1.1-0.5,1.1-1.1v-0.6
	C8.8,22.9,8.3,22.4,7.7,22.4z M7.7,15.2H7.1c-0.6,0-1.1,0.5-1.1,1.1v0.6C6,17.5,6.5,18,7.1,18h0.6c0.6,0,1.1-0.5,1.1-1.1v-0.6
	C8.8,15.7,8.3,15.2,7.7,15.2z"/>
</svg>
