<svg width="15" height="15" viewBox="0 0 15 15" fill="none" xmlns="http://www.w3.org/2000/svg">
<circle cx="7.5" cy="7.5" r="7" stroke="#6F6F6F"/>
<path fill-rule="evenodd" clip-rule="evenodd" d="M5.70711 5L5 5.70711L6.97945 7.68656L5.00002 9.66599L5.70713 10.3731L7.68656 8.39367L9.66599 10.3731L10.3731 9.66599L8.39367 7.68656L10.3731 5.70711L9.66602 5L7.68656 6.97945L5.70711 5Z" fill="#6F6F6F"/>
<path fill-rule="evenodd" clip-rule="evenodd" d="M5.70711 5L5 5.70711L6.97945 7.68656L5.00002 9.66599L5.70713 10.3731L7.68656 8.39367L9.66599 10.3731L10.3731 9.66599L8.39367 7.68656L10.3731 5.70711L9.66602 5L7.68656 6.97945L5.70711 5Z" fill="#6F6F6F"/>
</svg>
