<svg width="370" height="225" viewBox="0 0 370 225" fill="none" xmlns="http://www.w3.org/2000/svg">
<g clip-path="url(#clip0_1256_29747)">
<path d="M204.5 30.2H156.3C151.8 30.2 148.2 33.8999 148.2 38.2999V104.2C148.2 108.7 151.9 112.3 156.3 112.3H204.5C209 112.3 212.6 108.6 212.6 104.2V38.2999C212.6 33.7999 209 30.2 204.5 30.2ZM203.3 89.5999C203.3 91.5 201.8 93 199.9 93H160.9C159 93 157.5 91.5 157.5 89.5999C157.5 87.6999 159 86.1999 160.9 86.1999H199.9C201.8 86.1999 203.3 87.7999 203.3 89.5999ZM199.9 75.5999H160.9C159 75.5999 157.5 74.0999 157.5 72.1999C157.5 70.2999 159 68.8 160.9 68.8H199.9C201.8 68.8 203.3 70.2999 203.3 72.1999C203.3 73.9999 201.8 75.5999 199.9 75.5999ZM203.3 52.9C203.3 54.8 201.8 56.2999 199.9 56.2999H160.9C159 56.2999 157.5 54.8 157.5 52.9C157.5 51 159 49.5 160.9 49.5H199.9C201.8 49.6 203.3 51.1 203.3 52.9Z" fill="url(#paint0_linear_1256_29747)"/>
<path d="M200.4 83.8001L244.4 49.6001C245 49.0001 245.2 48.1001 244.6 47.4001L239.1 40.3001C238.5 39.7001 237.6 39.5001 236.9 40.1001L192.9 74.3001L200.4 83.8001Z" fill="url(#paint1_linear_1256_29747)"/>
<path d="M200.4 83.8L191.2 85.1C189.9 85.3 188.9 84 189.4 82.8L192.9 74.2L200.4 83.8Z" fill="white"/>
<path d="M229.6 27C233.8 27 237.2 23.6 237.2 19.4C237.2 15.2 233.8 11.8 229.6 11.8C225.4 11.8 222 15.2 222 19.4C222 23.6 225.4 27 229.6 27Z" fill="url(#paint2_linear_1256_29747)"/>
<path d="M235.6 109C238.6 109 241 106.6 241 103.6C241 100.6 238.6 98.2 235.6 98.2C232.6 98.2 230.2 100.6 230.2 103.6C230.2 106.6 232.6 109 235.6 109Z" fill="url(#paint3_linear_1256_29747)"/>
<path d="M152.7 10.5C155.5 10.5 157.8 8.20005 157.8 5.40005C157.8 2.60005 155.5 0.300049 152.7 0.300049C149.9 0.300049 147.6 2.60005 147.6 5.40005C147.6 8.20005 149.9 10.5 152.7 10.5Z" fill="url(#paint4_linear_1256_29747)"/>
<path d="M132.6 85.5C135.9 85.5 138.5 82.8 138.5 79.6C138.5 76.3 135.8 73.7 132.6 73.7C129.3 73.7 126.7 76.4 126.7 79.6C126.6 82.8 129.3 85.5 132.6 85.5Z" fill="url(#paint5_linear_1256_29747)"/>
<path d="M144.7 56.4C151 56.4 156.2 51.3 156.2 44.9C156.2 38.6 151.1 33.5 144.7 33.5C138.4 33.5 133.2 38.6 133.2 44.9C133.2 51.3 138.3 56.4 144.7 56.4Z" fill="url(#paint6_linear_1256_29747)"/>
<path d="M144.3 49.9C143.9 49.9 143.4 49.7 143.1 49.5L138 45.7C137.1 45.1 136.9 43.8 137.6 42.9C138.3 42 139.5 41.8 140.4 42.5L144.1 45.3L148.6 40.8C149.4 40 150.7 40 151.4 40.8C152.2 41.6 152.2 42.9 151.4 43.6L145.7 49.3C145.4 49.7 144.8 49.9 144.3 49.9Z" fill="white"/>
<path d="M369.5 223.7C369.5 174.4 286.6 134.4 184.5 134.4C82.4 134.4 -0.5 174.4 -0.5 223.7H369.5Z" fill="url(#paint7_linear_1256_29747)"/>
</g>
<defs>
<linearGradient id="paint0_linear_1256_29747" x1="148.2" y1="30.2" x2="148.2" y2="112.3" gradientUnits="userSpaceOnUse">
<stop stop-color="#1678ff"/>
<stop offset="0.994792" stop-color="#8fc5fd"/>
</linearGradient>
<linearGradient id="paint1_linear_1256_29747" x1="240" y1="44" x2="196.061" y2="75.276" gradientUnits="userSpaceOnUse">
<stop stop-color="#1678ff"/>
<stop offset="0.994792" stop-color="#8fc5fd"/>
</linearGradient>
<linearGradient id="paint2_linear_1256_29747" x1="224.776" y1="11.8" x2="238.579" y2="14.4466" gradientUnits="userSpaceOnUse">
<stop stop-color="#1678ff"/>
<stop offset="1" stop-color="#8fc5fd"/>
</linearGradient>
<linearGradient id="paint3_linear_1256_29747" x1="230.2" y1="98.2" x2="230.2" y2="109" gradientUnits="userSpaceOnUse">
<stop stop-color="#1678ff"/>
<stop offset="0.994792" stop-color="#8fc5fd"/>
</linearGradient>
<linearGradient id="paint4_linear_1256_29747" x1="147.6" y1="0.300049" x2="147.6" y2="10.5" gradientUnits="userSpaceOnUse">
<stop stop-color="#1678ff"/>
<stop offset="0.994792" stop-color="#8fc5fd"/>
</linearGradient>
<linearGradient id="paint5_linear_1256_29747" x1="126.697" y1="73.7" x2="126.697" y2="85.5" gradientUnits="userSpaceOnUse">
<stop stop-color="#1678ff"/>
<stop offset="0.994792" stop-color="#8fc5fd"/>
</linearGradient>
<linearGradient id="paint6_linear_1256_29747" x1="133.2" y1="33.5" x2="133.2" y2="56.4" gradientUnits="userSpaceOnUse">
<stop stop-color="#1678ff"/>
<stop offset="0.994792" stop-color="#8fc5fd"/>
</linearGradient>
<linearGradient id="paint7_linear_1256_29747" x1="-0.5" y1="134.4" x2="-0.5" y2="212.5" gradientUnits="userSpaceOnUse">
<stop stop-color="#1678ff"/>
<stop offset="1" stop-color="#EEEEF0" stop-opacity="0"/>
</linearGradient>
<clipPath id="clip0_1256_29747">
<rect width="370" height="225" fill="white"/>
</clipPath>
</defs>
</svg>
