<?xml version="1.0" encoding="utf-8"?>
<!-- Generator: Adobe Illustrator 24.0.1, SVG Export Plug-In . SVG Version: 6.00 Build 0)  -->
<svg version="1.1" id="圖層_1" xmlns="http://www.w3.org/2000/svg" xmlns:xlink="http://www.w3.org/1999/xlink" x="0px" y="0px"
	 viewBox="0 0 22.6 20" style="enable-background:new 0 0 22.6 20;" xml:space="preserve">
<style type="text/css">
	.st0{fill:url(#SVGID_1_);}
</style>
<title>gameHallAct-btn</title>
<g id="圖層_2_1_">
	<g id="圖層_1-2">
		
			<linearGradient id="SVGID_1_" gradientUnits="userSpaceOnUse" x1="4.1325" y1="15.3325" x2="18.4088" y2="1.0563" gradientTransform="matrix(1 0 0 -1 0 22)">
			<stop  offset="0" style="stop-color:#B0DFD9"/>
			<stop  offset="1" style="stop-color:#009688"/>
		</linearGradient>
		<path class="st0" d="M22.1,11.3H20v7.5c0.1,0.6-0.4,1.2-1,1.2c-0.1,0-0.2,0-0.3,0h-5v-7.5h-5V20h-5c-0.6,0.1-1.2-0.4-1.2-1
			c0-0.1,0-0.2,0-0.2v-7.5h-2c-0.8,0-0.6-0.4-0.1-0.9l10-10C10.7,0.1,11,0,11.3,0c0.3,0,0.6,0.2,0.9,0.4l10,10
			C22.6,10.9,22.8,11.3,22.1,11.3z"/>
	</g>
</g>
</svg>
